…
``` r
# So, we need the actual age in days for "19691231_190357"

age_dist %>%
  group_by(Sex, iSess) %>%
  summarize(nF = n())
```

    ## # A tibble: 37 x 3
    ## # Groups:   Sex [?]
    ##      Sex iSess    nF
    ##    <chr> <int> <int>
    ##  1     f   994 15360
    ##  2     f   995 15360
    ##  3     f   997 15360
    ##  4     f   998 15360
    ##  5     f   999 15360
    ##  6     f  1008 15360
    ##  7     f  1017 15360
    ##  8     f  1021 15360
    ##  9     f  1025 15360
    ## 10     f  1029 15360
    ## # ... with 27 more rows
…
